{
    "mail": {
        "media": "http://energy.adidas-running.ru/img/"
    },
    "db": "mongodb://localhost:27017/newsletter",
    "mailchimp": {
        "api_key": "897fc8762614f139d85cb477bce7e4aa-us8",
        "options": {
            "list_id": "ef5e45ea20",
            "from_name": "adidas-running.ru",
            "from_email": "noreply@adidas-running.ru",
            "generate_text": true
        }
    }
}